{
	"name": "Existing Docker Compose (Extend)",
	"dockerComposeFile": [
		"../docker-compose.yml",
		"docker-compose.yml"
	],
	"service": "vscode",
	"workspaceFolder": "/var/www/html",
	"settings": {
		"terminal.integrated.shell.linux": null,
		"editor.formatOnSave": true,
		"editor.formatOnPaste": false,
		"cSpell.language": "en,es,en-US,en-GB,es-ES",
		"[markdown]": {
			"editor.defaultFormatter": "yzhang.markdown-all-in-one"
		},
		"[php]": {
			"editor.defaultFormatter": "junstyle.php-cs-fixer"
		},
		"php-cs-fixer.executablePath": "php-cs-fixer",
		"php-cs-fixer.config": "/var/www/html/.php_cs",
		"php-cs-fixer.onsave": true
	},
	"extensions": [
		"streetsidesoftware.code-spell-checker",
		"streetsidesoftware.code-spell-checker-spanish",
		"EditorConfig.EditorConfig",
		"yzhang.markdown-all-in-one",
		"junstyle.php-cs-fixer",
		"2gua.rainbow-brackets"
	],
	"postCreateCommand": "apt-get install -y git"
}